%YAML 1.1
%TAG !u! tag:unity3d.com,2011:
--- !u!1045 &1
EditorBuildSettings:
  m_ObjectHideFlags: 0
  serializedVersion: 2
  m_Scenes:
  - enabled: 1
    path: Assets/_Game_/Scenes/Day 1.unity
    guid: ed46d445e7f4f414d898394b088fc631
  - enabled: 1
    path: Assets/_Game_/Scenes/Day 2.unity
    guid: 863af4110e26f2f4c84ef21b614b42fc
